{
  "issues": {
    "114f50eb-e446-4c4e-bde3-3100442b4db1": {
      "assigneeId": "U0P2Of9dWHQlXIGhfFRe8O6hc9l1",
      "closed": false,
      "creationDate": 1528964992013,
      "creatorId": "AV5eRT7yTDgMRst9q1bUAGlPzQb2",
      "description": "Самая обычная задача",
      "expirationDate": 1529265600000,
      "priority": "HIGH",
      "title": "Пример задачи"
    },
    "3b9bf290-766b-41e1-90c7-a8bffc001187": {
      "assigneeId": "U0P2Of9dWHQlXIGhfFRe8O6hc9l1",
      "closed": true,
      "creationDate": 1529080884746,
      "creatorId": "AV5eRT7yTDgMRst9q1bUAGlPzQb2",
      "description": "остался ли кривой месяц",
      "expirationDate": 1530216000000,
      "priority": "HIGH",
      "title": "Проверка даты"
    },
    "5e3d0a8d-580a-47bc-a2b0-88f0a5397a0e": {
      "assigneeId": "saeofgoisadg123fafh",
      "closed": false,
      "creationDate": 1529072247654,
      "creatorId": "U0P2Of9dWHQlXIGhfFRe8O6hc9l1",
      "description": "только за собой ",
      "expirationDate": 1540929600000,
      "priority": "HIGHEST",
      "title": "Помыть посуду "
    },
    "6d4ec6fb-cd9b-48af-925d-a4e49db901b9": {
      "assigneeId": "U0P2Of9dWHQlXIGhfFRe8O6hc9l1",
      "closed": true,
      "creationDate": 1528948521509,
      "creatorId": "U0P2Of9dWHQlXIGhfFRe8O6hc9l1",
      "description": "машина прогресса",
      "expirationDate": 1528948521509,
      "priority": "MAJOR",
      "title": "Машина прогрета"
    },
    "ba92ddb4-e40b-4601-8157-9bc2b134cb03": {
      "assigneeId": "AV5eRT7yTDgMRst9q1bUAGlPzQb2",
      "closed": false,
      "creationDate": 1528948521509,
      "creatorId": "AV5eRT7yTDgMRst9q1bUAGlPzQb2",
      "description": "тстаикьсдс",
      "expirationDate": 1527624000000,
      "priority": "MAJOR",
      "title": "оаталсьал"
    },
    "c83109d0-6b59-4971-b728-e66b04c3fb04": {
      "assigneeId": "saeofgoisadg123fafh",
      "closed": false,
      "creationDate": 1529040643480,
      "creatorId": "AV5eRT7yTDgMRst9q1bUAGlPzQb2",
      "description": "рнстрмч",
      "expirationDate": 1527537600000,
      "priority": "MAJOR",
      "title": "помниа"
    },
    "d2da61fc-6350-4440-a863-6dfe9703aa91": {
      "assigneeId": "U0P2Of9dWHQlXIGhfFRe8O6hc9l1",
      "closed": true,
      "creationDate": 1528998145934,
      "creatorId": "U0P2Of9dWHQlXIGhfFRe8O6hc9l1",
      "description": "озарил мою больную душу",
      "expirationDate": 1530302400000,
      "priority": "MEDIUM",
      "title": "Свет "
    },
    "e18e9043-f7a1-4a74-aa27-ec27366a24cf": {
      "assigneeId": "saeofgoisadg123fafh",
      "closed": false,
      "creationDate": 1528895342087,
      "creatorId": "U0P2Of9dWHQlXIGhfFRe8O6hc9l1",
      "description": "Добавлено на сервере через веб-интерфейс",
      "expirationDate": 1527451200000,
      "priority": "MEDIUM",
      "title": "Новая задача"
    }
  }
}